﻿<ValueTable xmlns="http://v8.1c.ru/8.1/data/core" xmlns:xs="http://www.w3.org/2001/XMLSchema" xmlns:xsi="http://www.w3.org/2001/XMLSchema-instance" xsi:type="ValueTable">

	<column>
		<Name xsi:type="xs:string">КодСубъектаРФ</Name>
		<ValueType>
			<Type>xs:decimal</Type>
		</ValueType>
	</column>
	
	<column>
		<Name xsi:type="xs:string">Наименование</Name>
		<ValueType>
			<Type>xs:string</Type>
			<StringQualifiers>
				<Length>120</Length>
				<AllowedLength>Variable</AllowedLength>
			</StringQualifiers>
		</ValueType>
	</column>
	
	<column>
		<Name xsi:type="xs:string">Сокращение</Name>
		<ValueType>
			<Type>xs:string</Type>
			<StringQualifiers>
				<Length>10</Length>
				<AllowedLength>Variable</AllowedLength>
			</StringQualifiers>
		</ValueType>
	</column>
	
	<column>
		<Name xsi:type="xs:string">ПочтовыйИндекс</Name>
		<ValueType>
			<Type>xs:decimal</Type>
		</ValueType>
	</column>
	
	<column>
	<Name xsi:type="xs:string">ДиапазонПочтовыхИндексов</Name>
		<ValueType>
			<Type>xs:string</Type>
			<StringQualifiers>
				<Length>120</Length>
				<AllowedLength>Variable</AllowedLength>
			</StringQualifiers>
		</ValueType>
	</column>
	
	<column>
		<Name xsi:type="xs:string">Идентификатор</Name>
		<ValueType>
			<Type>UUID</Type>
		</ValueType>
	</column>

	<index><column>КодСубъектаРФ</column></index>
	<index><column>Наименование</column></index>
	<index><column>Наименование</column><column>Сокращение</column></index>
	<index><column>Идентификатор</column></index>

	<row><Value>01</Value><Value>Адыгея</Value>                                  <Value>Респ</Value>   <Value>385000</Value><Value>385</Value><Value>d8327a56-80de-4df2-815c-4f6ab1224c50</Value></row>
	<row><Value>02</Value><Value>Башкортостан</Value>                            <Value>Респ</Value>   <Value>450000</Value><Value>450-453</Value><Value>6f2cbfd8-692a-4ee4-9b16-067210bde3fc</Value></row>
	<row><Value>03</Value><Value>Бурятия</Value>                                 <Value>Респ</Value>   <Value>670000</Value><Value>670-671</Value><Value>a84ebed3-153d-4ba9-8532-8bdf879e1f5a</Value></row>
	<row><Value>04</Value><Value>Алтай</Value>                                   <Value>Респ</Value>   <Value>649000</Value><Value>649</Value><Value>5c48611f-5de6-4771-9695-7e36a4e7529d</Value></row>
	<row><Value>05</Value><Value>Дагестан</Value>                                <Value>Респ</Value>   <Value>368000</Value><Value>367-368</Value><Value>0bb7fa19-736d-49cf-ad0e-9774c4dae09b</Value></row>
	<row><Value>06</Value><Value>Ингушетия</Value>                               <Value>Респ</Value>   <Value>386000</Value><Value>386</Value><Value>b2d8cd20-cabc-4deb-afad-f3c4b4d55821</Value></row>
	<row><Value>07</Value><Value>Кабардино-Балкарская</Value>                    <Value>Респ</Value>   <Value>000000</Value><Value>360-367</Value><Value>1781f74e-be4a-4697-9c6b-493057c94818</Value></row>
	<row><Value>08</Value><Value>Калмыкия</Value>                                <Value>Респ</Value>   <Value>000000</Value><Value>358-359</Value><Value>491cde9d-9d76-4591-ab46-ea93c079e686</Value></row>
	<row><Value>09</Value><Value>Карачаево-Черкесская</Value>                    <Value>Респ</Value>   <Value>000000</Value><Value>369</Value><Value>61b95807-388a-4cb1-9bee-889f7cf811c8</Value></row>
	<row><Value>10</Value><Value>Карелия</Value>                                 <Value>Респ</Value>   <Value>000000</Value><Value>185-186</Value><Value>248d8071-06e1-425e-a1cf-d1ff4c4a14a8</Value></row>
	<row><Value>11</Value><Value>Коми</Value>                                    <Value>Респ</Value>   <Value>000000</Value><Value>167-169</Value><Value>c20180d9-ad9c-46d1-9eff-d60bc424592a</Value></row>
	<row><Value>12</Value><Value>Марий Эл</Value>                                <Value>Респ</Value>   <Value>000000</Value><Value>424-425</Value><Value>de2cbfdf-9662-44a4-a4a4-8ad237ae4a3e</Value></row>
	<row><Value>13</Value><Value>Мордовия</Value>                                <Value>Респ</Value>   <Value>000000</Value><Value>430-431</Value><Value>37a0c60a-9240-48b5-a87f-0d8c86cdb6e1</Value></row>
	<row><Value>14</Value><Value>Саха /Якутия/</Value>                           <Value>Респ</Value>   <Value>000000</Value><Value>677-678</Value><Value>c225d3db-1db6-4063-ace0-b3fe9ea3805f</Value></row>
	<row><Value>15</Value><Value>Северная Осетия - Алания</Value>                <Value>Респ</Value>   <Value>000000</Value><Value>362-363</Value><Value>de459e9c-2933-4923-83d1-9c64cfd7a817</Value></row>
	<row><Value>16</Value><Value>Татарстан</Value>                               <Value>Респ</Value>   <Value>420000</Value><Value>420-423</Value><Value>0c089b04-099e-4e0e-955a-6bf1ce525f1a</Value></row>
	<row><Value>17</Value><Value>Тыва</Value>                                    <Value>Респ</Value>   <Value>660000</Value><Value>667-668</Value><Value>026bc56f-3731-48e9-8245-655331f596c0</Value></row>
	<row><Value>18</Value><Value>Удмуртская</Value>                              <Value>Респ</Value>   <Value>000000</Value><Value>426-427</Value><Value>52618b9c-bcbb-47e7-8957-95c63f0b17cc</Value></row>
	<row><Value>19</Value><Value>Хакасия</Value>                                 <Value>Респ</Value>   <Value>655000</Value><Value>655</Value><Value>8d3f1d35-f0f4-41b5-b5b7-e7cadf3e7bd7</Value></row>
	<row><Value>20</Value><Value>Чеченская</Value>                               <Value>Респ</Value>   <Value>000000</Value><Value>364-366</Value><Value>de67dc49-b9ba-48a3-a4cc-c2ebfeca6c5e</Value></row>
	<row><Value>21</Value><Value>Чувашская Республика -</Value>                  <Value>Чувашия</Value><Value>000000</Value><Value>428-429</Value><Value>878fc621-3708-46c7-a97f-5a13a4176b3e</Value></row>
	<row><Value>22</Value><Value>Алтайский</Value>                               <Value>край</Value>   <Value>000000</Value><Value>656-659</Value><Value>8276c6a1-1a86-4f0d-8920-aba34d4cc34a</Value></row>
	<row><Value>23</Value><Value>Краснодарский</Value>                           <Value>край</Value>   <Value>000000</Value><Value>350-354</Value><Value>d00e1013-16bd-4c09-b3d5-3cb09fc54bd8</Value></row>
	<row><Value>24</Value><Value>Красноярский</Value>                            <Value>край</Value>   <Value>000000</Value><Value>660-663,647-648</Value><Value>db9c4f8b-b706-40e2-b2b4-d31b98dcd3d1</Value></row>
	<row><Value>25</Value><Value>Приморский</Value>                              <Value>край</Value>   <Value>000000</Value><Value>690-692</Value><Value>43909681-d6e1-432d-b61f-ddac393cb5da</Value></row>
	<row><Value>26</Value><Value>Ставропольский</Value>                          <Value>край</Value>   <Value>000000</Value><Value>355-357</Value><Value>327a060b-878c-4fb4-8dc4-d5595871a3d8</Value></row>
	<row><Value>27</Value><Value>Хабаровский</Value>                             <Value>край</Value>   <Value>000000</Value><Value>680-682</Value><Value>7d468b39-1afa-41ec-8c4f-97a8603cb3d4</Value></row>
	<row><Value>28</Value><Value>Амурская</Value>                                <Value>обл</Value>    <Value>675000</Value><Value>675-676</Value><Value>844a80d6-5e31-4017-b422-4d9c01e9942c</Value></row>
	<row><Value>29</Value><Value>Архангельская</Value>                           <Value>обл</Value>    <Value>000000</Value><Value>163-165</Value><Value>294277aa-e25d-428c-95ad-46719c4ddb44</Value></row>
	<row><Value>30</Value><Value>Астраханская</Value>                            <Value>обл</Value>    <Value>000000</Value><Value>414-416</Value><Value>83009239-25cb-4561-af8e-7ee111b1cb73</Value></row>
	<row><Value>31</Value><Value>Белгородская</Value>                            <Value>обл</Value>    <Value>000000</Value><Value>308-309</Value><Value>639efe9d-3fc8-4438-8e70-ec4f2321f2a7</Value></row>
	<row><Value>32</Value><Value>Брянская</Value>                                <Value>обл</Value>    <Value>000000</Value><Value>241-243</Value><Value>f5807226-8be0-4ea8-91fc-39d053aec1e2</Value></row>
	<row><Value>33</Value><Value>Владимирская</Value>                            <Value>обл</Value>    <Value>000000</Value><Value>600-602</Value><Value>b8837188-39ee-4ff9-bc91-fcc9ed451bb3</Value></row>
	<row><Value>34</Value><Value>Волгоградская</Value>                           <Value>обл</Value>    <Value>000000</Value><Value>400-404</Value><Value>da051ec8-da2e-4a66-b542-473b8d221ab4</Value></row>
	<row><Value>35</Value><Value>Вологодская</Value>                             <Value>обл</Value>    <Value>000000</Value><Value>160-162</Value><Value>ed36085a-b2f5-454f-b9a9-1c9a678ee618</Value></row>
	<row><Value>36</Value><Value>Воронежская</Value>                             <Value>обл</Value>    <Value>000000</Value><Value>394-397</Value><Value>b756fe6b-bbd3-44d5-9302-5bfcc740f46e</Value></row>
	<row><Value>37</Value><Value>Ивановская</Value>                              <Value>обл</Value>    <Value>000000</Value><Value>153-155</Value><Value>0824434f-4098-4467-af72-d4f702fed335</Value></row>
	<row><Value>38</Value><Value>Иркутская</Value>                               <Value>обл</Value>    <Value>000000</Value><Value>664-668,669</Value><Value>6466c988-7ce3-45e5-8b97-90ae16cb1249</Value></row>
	<row><Value>39</Value><Value>Калининградская</Value>                         <Value>обл</Value>    <Value>000000</Value><Value>236-238</Value><Value>90c7181e-724f-41b3-b6c6-bd3ec7ae3f30</Value></row>
	<row><Value>40</Value><Value>Калужская</Value>                               <Value>обл</Value>    <Value>000000</Value><Value>248-249</Value><Value>18133adf-90c2-438e-88c4-62c41656de70</Value></row>
	<row><Value>41</Value><Value>Камчатский</Value>                              <Value>край</Value>   <Value>000000</Value><Value>683-684,688</Value><Value>d02f30fc-83bf-4c0f-ac2b-5729a866a207</Value></row>
	<row><Value>42</Value><Value>Кемеровская область -</Value>                   <Value>Кузбасс</Value><Value>000000</Value><Value>650-654</Value><Value>393aeccb-89ef-4a7e-ae42-08d5cebc2e30</Value></row>
	<row><Value>43</Value><Value>Кировская</Value>                               <Value>обл</Value>    <Value>610000</Value><Value>610-613</Value><Value>0b940b96-103f-4248-850c-26b6c7296728</Value></row>
	<row><Value>44</Value><Value>Костромская</Value>                             <Value>обл</Value>    <Value>000000</Value><Value>156-157</Value><Value>15784a67-8cea-425b-834a-6afe0e3ed61c</Value></row>
	<row><Value>45</Value><Value>Курганская</Value>                              <Value>обл</Value>    <Value>641000</Value><Value>640-641</Value><Value>4a3d970f-520e-46b9-b16c-50d4ca7535a8</Value></row>
	<row><Value>46</Value><Value>Курская</Value>                                 <Value>обл</Value>    <Value>000000</Value><Value>305-307</Value><Value>ee594d5e-30a9-40dc-b9f2-0add1be44ba1</Value></row>
	<row><Value>47</Value><Value>Ленинградская</Value>                           <Value>обл</Value>    <Value>000000</Value><Value>187-188</Value><Value>6d1ebb35-70c6-4129-bd55-da3969658f5d</Value></row>
	<row><Value>48</Value><Value>Липецкая</Value>                                <Value>обл</Value>    <Value>000000</Value><Value>398-399</Value><Value>1490490e-49c5-421c-9572-5673ba5d80c8</Value></row>
	<row><Value>49</Value><Value>Магаданская</Value>                             <Value>обл</Value>    <Value>000000</Value><Value>685-686</Value><Value>9c05e812-8679-4710-b8cb-5e8bd43cdf48</Value></row>
	<row><Value>50</Value><Value>Московская</Value>                              <Value>обл</Value>    <Value>000000</Value><Value>140-144</Value><Value>29251dcf-00a1-4e34-98d4-5c47484a36d4</Value></row>
	<row><Value>51</Value><Value>Мурманская</Value>                              <Value>обл</Value>    <Value>000000</Value><Value>183-184</Value><Value>1c727518-c96a-4f34-9ae6-fd510da3be03</Value></row>
	<row><Value>52</Value><Value>Нижегородская</Value>                           <Value>обл</Value>    <Value>000000</Value><Value>603-607</Value><Value>88cd27e2-6a8a-4421-9718-719a28a0a088</Value></row>
	<row><Value>53</Value><Value>Новгородская</Value>                            <Value>обл</Value>    <Value>000000</Value><Value>173-175</Value><Value>e5a84b81-8ea1-49e3-b3c4-0528651be129</Value></row>
	<row><Value>54</Value><Value>Новосибирская</Value>                           <Value>обл</Value>    <Value>000000</Value><Value>630-633</Value><Value>1ac46b49-3209-4814-b7bf-a509ea1aecd9</Value></row>
	<row><Value>55</Value><Value>Омская</Value>                                  <Value>обл</Value>    <Value>000000</Value><Value>644-646</Value><Value>05426864-466d-41a3-82c4-11e61cdc98ce</Value></row>
	<row><Value>56</Value><Value>Оренбургская</Value>                            <Value>обл</Value>    <Value>460000</Value><Value>460-462</Value><Value>8bcec9d6-05bc-4e53-b45c-ba0c6f3a5c44</Value></row>
	<row><Value>57</Value><Value>Орловская</Value>                               <Value>обл</Value>    <Value>000000</Value><Value>302-303</Value><Value>5e465691-de23-4c4e-9f46-f35a125b5970</Value></row>
	<row><Value>58</Value><Value>Пензенская</Value>                              <Value>обл</Value>    <Value>000000</Value><Value>440-442</Value><Value>c99e7924-0428-4107-a302-4fd7c0cca3ff</Value></row>
	<row><Value>59</Value><Value>Пермский</Value>                                <Value>край</Value>   <Value>000000</Value><Value>614-619</Value><Value>4f8b1a21-e4bb-422f-9087-d3cbf4bebc14</Value></row>
	<row><Value>60</Value><Value>Псковская</Value>                               <Value>обл</Value>    <Value>000000</Value><Value>180-182</Value><Value>f6e148a1-c9d0-4141-a608-93e3bd95e6c4</Value></row>
	<row><Value>61</Value><Value>Ростовская</Value>                              <Value>обл</Value>    <Value>000000</Value><Value>344-347</Value><Value>f10763dc-63e3-48db-83e1-9c566fe3092b</Value></row>
	<row><Value>62</Value><Value>Рязанская</Value>                               <Value>обл</Value>    <Value>390000</Value><Value>390-391</Value><Value>963073ee-4dfc-48bd-9a70-d2dfc6bd1f31</Value></row>
	<row><Value>63</Value><Value>Самарская</Value>                               <Value>обл</Value>    <Value>000000</Value><Value>443-446</Value><Value>df3d7359-afa9-4aaa-8ff9-197e73906b1c</Value></row>
	<row><Value>64</Value><Value>Саратовская</Value>                             <Value>обл</Value>    <Value>410000</Value><Value>410-413</Value><Value>df594e0e-a935-4664-9d26-0bae13f904fe</Value></row>
	<row><Value>65</Value><Value>Сахалинская</Value>                             <Value>обл</Value>    <Value>693000</Value><Value>693-694</Value><Value>aea6280f-4648-460f-b8be-c2bc18923191</Value></row>
	<row><Value>66</Value><Value>Свердловская</Value>                            <Value>обл</Value>    <Value>620000</Value><Value>620-624</Value><Value>92b30014-4d52-4e2e-892d-928142b924bf</Value></row>
	<row><Value>67</Value><Value>Смоленская</Value>                              <Value>обл</Value>    <Value>000000</Value><Value>214-216</Value><Value>e8502180-6d08-431b-83ea-c7038f0df905</Value></row>
	<row><Value>68</Value><Value>Тамбовская</Value>                              <Value>обл</Value>    <Value>392000</Value><Value>392-393</Value><Value>a9a71961-9363-44ba-91b5-ddf0463aebc2</Value></row>
	<row><Value>69</Value><Value>Тверская</Value>                                <Value>обл</Value>    <Value>000000</Value><Value>170-172</Value><Value>61723327-1c20-42fe-8dfa-402638d9b396</Value></row>
	<row><Value>70</Value><Value>Томская</Value>                                 <Value>обл</Value>    <Value>000000</Value><Value>634-636</Value><Value>889b1f3a-98aa-40fc-9d3d-0f41192758ab</Value></row>
	<row><Value>71</Value><Value>Тульская</Value>                                <Value>обл</Value>    <Value>000000</Value><Value>300-301</Value><Value>d028ec4f-f6da-4843-ada6-b68b3e0efa3d</Value></row>
	<row><Value>72</Value><Value>Тюменская</Value>                               <Value>обл</Value>    <Value>000000</Value><Value>625-627</Value><Value>54049357-326d-4b8f-b224-3c6dc25d6dd3</Value></row>
	<row><Value>73</Value><Value>Ульяновская</Value>                             <Value>обл</Value>    <Value>433000</Value><Value>432-433</Value><Value>fee76045-fe22-43a4-ad58-ad99e903bd58</Value></row>
	<row><Value>74</Value><Value>Челябинская</Value>                             <Value>обл</Value>    <Value>454000</Value><Value>454-457</Value><Value>27eb7c10-a234-44da-a59c-8b1f864966de</Value></row>
	<row><Value>75</Value><Value>Забайкальский</Value>                           <Value>край</Value>   <Value>000000</Value><Value>672-674,687</Value><Value>b6ba5716-eb48-401b-8443-b197c9578734</Value></row>
	<row><Value>76</Value><Value>Ярославская</Value>                             <Value>обл</Value>    <Value>000000</Value><Value>150-152</Value><Value>a84b2ef4-db03-474b-b552-6229e801ae9b</Value></row>
	<row><Value>77</Value><Value>Москва</Value>                                  <Value>г</Value>      <Value>000000</Value><Value>101-135</Value><Value>0c5b2444-70a0-4932-980c-b4dc0d3f02b5</Value></row>
	<row><Value>78</Value><Value>Санкт-Петербург</Value>                         <Value>г</Value>      <Value>190000</Value><Value>190-199</Value><Value>c2deb16a-0330-4f05-821f-1d09c93331e6</Value></row>
	<row><Value>79</Value><Value>Еврейская</Value>                               <Value>Аобл</Value>   <Value>000000</Value><Value>679</Value><Value>1b507b09-48c9-434f-bf6f-65066211c73e</Value></row>
	<row><Value>80</Value><Value>Забайкальский край Агинский Бурятский</Value>   <Value>округ</Value>  <Value>000000</Value><Value>0</Value><Value>53ec9705-ec3e-4cbf-921f-229968e10aeb</Value></row>
	<row><Value>81</Value><Value>Коми-Пермяцкий</Value>                          <Value>АО</Value>     <Value>000000</Value><Value>0</Value><Value>e3d95b95-cc2d-440d-95c6-65577fae076e</Value></row>
	<row><Value>82</Value><Value>Корякский</Value>                               <Value>АО</Value>     <Value>000000</Value><Value>0</Value><Value>1e97910c-34fb-428a-a113-13a0024684ae</Value></row>
	<row><Value>83</Value><Value>Ненецкий</Value>                                <Value>АО</Value>     <Value>166000</Value><Value>166</Value><Value>89db3198-6803-4106-9463-cbf781eff0b8</Value></row>
	<row><Value>84</Value><Value>Таймырский (Долгано-Ненецкий)</Value>           <Value>АО</Value>     <Value>000000</Value><Value>0</Value><Value>29a47e2d-7606-481d-98d5-444e755dec34</Value></row>
	<row><Value>85</Value><Value>Иркутская обл Усть-Ордынский Бурятский</Value>  <Value>округ</Value>  <Value>669000</Value><Value>0</Value><Value>c2f0810a-d71e-4af6-85f1-e0bbd81b3e4d</Value></row>
	<row><Value>86</Value><Value>Ханты-Мансийский Автономный округ - Югра</Value><Value>АО</Value>     <Value>000000</Value><Value>628</Value><Value>d66e5325-3a25-4d29-ba86-4ca351d9704b</Value></row>
	<row><Value>87</Value><Value>Чукотский</Value>                               <Value>АО</Value>     <Value>000000</Value><Value>689</Value><Value>f136159b-404a-4f1f-8d8d-d169e1374d5c</Value></row>
	<row><Value>88</Value><Value>Эвенкийский</Value>                             <Value>АО</Value>     <Value>000000</Value><Value>0</Value><Value>2d7468f0-bec1-4571-85f3-bdefd62b3d50</Value></row>
	<row><Value>89</Value><Value>Ямало-Ненецкий</Value>                          <Value>АО</Value>     <Value>629000</Value><Value>629</Value><Value>826fa834-3ee8-404f-bdbc-13a5221cfb6e</Value></row>
	<row><Value>91</Value><Value>Крым</Value>                                    <Value>Респ</Value>   <Value>000000</Value><Value>295-298</Value><Value>bd8e6511-e4b9-4841-90de-6bbc231a789e</Value></row>
	<row><Value>92</Value><Value>Севастополь</Value>                             <Value>г</Value>      <Value>000000</Value><Value>299</Value><Value>6fdecb78-893a-4e3f-a5ba-aa062459463b</Value></row>
	<row><Value>99</Value><Value>Байконур</Value>                                <Value>г</Value>      <Value>468320</Value><Value>468</Value><Value>63ed1a35-4be6-4564-a1ec-0c51f7383314</Value></row>

</ValueTable>
