﻿<ValueTable xmlns="http://v8.1c.ru/8.1/data/core" xmlns:xs="http://www.w3.org/2001/XMLSchema" xmlns:xsi="http://www.w3.org/2001/XMLSchema-instance" xsi:type="ValueTable">
	<column>
		<Name xsi:type="xs:string">КодПоОКТМО</Name>
		<ValueType>
			<Type>xs:string</Type>
			<StringQualifiers>
				<Length>11</Length>
				<AllowedLength>Variable</AllowedLength>
			</StringQualifiers>
		</ValueType>
	</column>
	<column>
		<Name xsi:type="xs:string">Территория</Name>
		<ValueType>
			<Type xmlns:d4p1="http://v8.1c.ru/8.1/data/enterprise/current-config">d4p1:CatalogRef.ТерриторииОсуществленияТорговойДеятельности</Type>
		</ValueType>
	</column>
	<row>
		<Value>45374000</Value>
		<Value>b7f019e2-d3e0-11e5-982d-14dae9b19a48</Value>
	</row>
	<row>
		<Value>45375000</Value>
		<Value>b7f019e2-d3e0-11e5-982d-14dae9b19a48</Value>
	</row>
	<row>
		<Value>45376000</Value>
		<Value>b7f019e2-d3e0-11e5-982d-14dae9b19a48</Value>
	</row>
	<row>
		<Value>45378000</Value>
		<Value>b7f019e2-d3e0-11e5-982d-14dae9b19a48</Value>
	</row>
	<row>
		<Value>45379000</Value>
		<Value>b7f019e2-d3e0-11e5-982d-14dae9b19a48</Value>
	</row>
	<row>
		<Value>45380000</Value>
		<Value>b7f019e2-d3e0-11e5-982d-14dae9b19a48</Value>
	</row>
	<row>
		<Value>45381000</Value>
		<Value>b7f019e2-d3e0-11e5-982d-14dae9b19a48</Value>
	</row>
	<row>
		<Value>45382000</Value>
		<Value>b7f019e2-d3e0-11e5-982d-14dae9b19a48</Value>
	</row>
	<row>
		<Value>45383000</Value>
		<Value>b7f019e2-d3e0-11e5-982d-14dae9b19a48</Value>
	</row>
	<row>
		<Value>45384000</Value>
		<Value>b7f019e2-d3e0-11e5-982d-14dae9b19a48</Value>
	</row>
	<row>
		<Value>45330000</Value>
		<Value>b7f019e3-d3e0-11e5-982d-14dae9b19a48</Value>
	</row>
	<row>
		<Value>45331000</Value>
		<Value>b7f019e3-d3e0-11e5-982d-14dae9b19a48</Value>
	</row>
	<row>
		<Value>45377000</Value>
		<Value>b7f019e3-d3e0-11e5-982d-14dae9b19a48</Value>
	</row>
	<row>
		<Value>45332000</Value>
		<Value>b7f019e3-d3e0-11e5-982d-14dae9b19a48</Value>
	</row>
	<row>
		<Value>45927000</Value>
		<Value>b7f019e3-d3e0-11e5-982d-14dae9b19a48</Value>
	</row>
	<row>
		<Value>45943000</Value>
		<Value>b7f019e3-d3e0-11e5-982d-14dae9b19a48</Value>
	</row>
	<row>
		<Value>45948000</Value>
		<Value>b7f019e3-d3e0-11e5-982d-14dae9b19a48</Value>
	</row>
	<row>
		<Value>45955000</Value>
		<Value>b7f019e3-d3e0-11e5-982d-14dae9b19a48</Value>
	</row>
	<row>
		<Value>45961000</Value>
		<Value>b7f019e3-d3e0-11e5-982d-14dae9b19a48</Value>
	</row>
	<row>
		<Value>45945000</Value>
		<Value>b7f019e3-d3e0-11e5-982d-14dae9b19a48</Value>
	</row>
	<row>
		<Value>45951000</Value>
		<Value>b7f019e3-d3e0-11e5-982d-14dae9b19a48</Value>
	</row>
	<row>
		<Value>45956000</Value>
		<Value>b7f019e3-d3e0-11e5-982d-14dae9b19a48</Value>
	</row>
	<row>
		<Value>45946000</Value>
		<Value>b7f019e3-d3e0-11e5-982d-14dae9b19a48</Value>
	</row>
	<row>
		<Value>45954000</Value>
		<Value>b7f019e3-d3e0-11e5-982d-14dae9b19a48</Value>
	</row>
	<row>
		<Value>45931000</Value>
		<Value>b7f019e3-d3e0-11e5-982d-14dae9b19a48</Value>
	</row>
	<row>
		<Value>45941000</Value>
		<Value>b7f019e3-d3e0-11e5-982d-14dae9b19a48</Value>
	</row>
	<row>
		<Value>45942000</Value>
		<Value>b7f019e3-d3e0-11e5-982d-14dae9b19a48</Value>
	</row>
	<row>
		<Value>45944000</Value>
		<Value>b7f019e3-d3e0-11e5-982d-14dae9b19a48</Value>
	</row>
	<row>
		<Value>45947000</Value>
		<Value>b7f019e3-d3e0-11e5-982d-14dae9b19a48</Value>
	</row>
	<row>
		<Value>45949000</Value>
		<Value>b7f019e3-d3e0-11e5-982d-14dae9b19a48</Value>
	</row>
	<row>
		<Value>45952000</Value>
		<Value>b7f019e3-d3e0-11e5-982d-14dae9b19a48</Value>
	</row>
	<row>
		<Value>45953000</Value>
		<Value>b7f019e3-d3e0-11e5-982d-14dae9b19a48</Value>
	</row>
	<row>
		<Value>45957000</Value>
		<Value>b7f019e3-d3e0-11e5-982d-14dae9b19a48</Value>
	</row>
	<row>
		<Value>45958000</Value>
		<Value>b7f019e3-d3e0-11e5-982d-14dae9b19a48</Value>
	</row>
	<row>
		<Value>45959000</Value>
		<Value>b7f019e3-d3e0-11e5-982d-14dae9b19a48</Value>
	</row>
	<row>
		<Value>45932000</Value>
		<Value>b7f019e3-d3e0-11e5-982d-14dae9b19a48</Value>
	</row>
	<row>
		<Value>45343000</Value>
		<Value>b7f019e3-d3e0-11e5-982d-14dae9b19a48</Value>
	</row>
	<row>
		<Value>45363000</Value>
		<Value>b7f019e3-d3e0-11e5-982d-14dae9b19a48</Value>
	</row>
	<row>
		<Value>45304000</Value>
		<Value>b7f019e3-d3e0-11e5-982d-14dae9b19a48</Value>
	</row>
	<row>
		<Value>45310000</Value>
		<Value>b7f019e3-d3e0-11e5-982d-14dae9b19a48</Value>
	</row>
	<row>
		<Value>45308000</Value>
		<Value>b7f019e3-d3e0-11e5-982d-14dae9b19a48</Value>
	</row>
	<row>
		<Value>45391000</Value>
		<Value>b7f019e3-d3e0-11e5-982d-14dae9b19a48</Value>
	</row>
	<row>
		<Value>45906000</Value>
		<Value>b7f019e3-d3e0-11e5-982d-14dae9b19a48</Value>
	</row>
	<row>
		<Value>45909000</Value>
		<Value>b7f019e3-d3e0-11e5-982d-14dae9b19a48</Value>
	</row>
	<row>
		<Value>45326000</Value>
		<Value>b7f019e3-d3e0-11e5-982d-14dae9b19a48</Value>
	</row>
	<row>
		<Value>45322000</Value>
		<Value>b7f019e3-d3e0-11e5-982d-14dae9b19a48</Value>
	</row>
	<row>
		<Value>45317000</Value>
		<Value>b7f019e3-d3e0-11e5-982d-14dae9b19a48</Value>
	</row>
	<row>
		<Value>45366000</Value>
		<Value>b7f019e3-d3e0-11e5-982d-14dae9b19a48</Value>
	</row>
	<row>
		<Value>45367000</Value>
		<Value>b7f019e3-d3e0-11e5-982d-14dae9b19a48</Value>
	</row>
	<row>
		<Value>45333000</Value>
		<Value>b7f019e4-d3e0-11e5-982d-14dae9b19a48</Value>
	</row>
	<row>
		<Value>45334000</Value>
		<Value>b7f019e4-d3e0-11e5-982d-14dae9b19a48</Value>
	</row>
	<row>
		<Value>45335000</Value>
		<Value>b7f019e4-d3e0-11e5-982d-14dae9b19a48</Value>
	</row>
	<row>
		<Value>45336000</Value>
		<Value>b7f019e4-d3e0-11e5-982d-14dae9b19a48</Value>
	</row>
	<row>
		<Value>45337000</Value>
		<Value>b7f019e4-d3e0-11e5-982d-14dae9b19a48</Value>
	</row>
	<row>
		<Value>45339000</Value>
		<Value>b7f019e4-d3e0-11e5-982d-14dae9b19a48</Value>
	</row>
	<row>
		<Value>45340000</Value>
		<Value>b7f019e4-d3e0-11e5-982d-14dae9b19a48</Value>
	</row>
	<row>
		<Value>45338000</Value>
		<Value>b7f019e4-d3e0-11e5-982d-14dae9b19a48</Value>
	</row>
	<row>
		<Value>45341000</Value>
		<Value>b7f019e4-d3e0-11e5-982d-14dae9b19a48</Value>
	</row>
	<row>
		<Value>45342000</Value>
		<Value>b7f019e4-d3e0-11e5-982d-14dae9b19a48</Value>
	</row>
	<row>
		<Value>45344000</Value>
		<Value>b7f019e4-d3e0-11e5-982d-14dae9b19a48</Value>
	</row>
	<row>
		<Value>45345000</Value>
		<Value>b7f019e4-d3e0-11e5-982d-14dae9b19a48</Value>
	</row>
	<row>
		<Value>45346000</Value>
		<Value>b7f019e4-d3e0-11e5-982d-14dae9b19a48</Value>
	</row>
	<row>
		<Value>45347000</Value>
		<Value>b7f019e4-d3e0-11e5-982d-14dae9b19a48</Value>
	</row>
	<row>
		<Value>45348000</Value>
		<Value>b7f019e4-d3e0-11e5-982d-14dae9b19a48</Value>
	</row>
	<row>
		<Value>45349000</Value>
		<Value>b7f019e4-d3e0-11e5-982d-14dae9b19a48</Value>
	</row>
	<row>
		<Value>45350000</Value>
		<Value>b7f019e4-d3e0-11e5-982d-14dae9b19a48</Value>
	</row>
	<row>
		<Value>45351000</Value>
		<Value>b7f019e4-d3e0-11e5-982d-14dae9b19a48</Value>
	</row>
	<row>
		<Value>45352000</Value>
		<Value>b7f019e4-d3e0-11e5-982d-14dae9b19a48</Value>
	</row>
	<row>
		<Value>45353000</Value>
		<Value>b7f019e4-d3e0-11e5-982d-14dae9b19a48</Value>
	</row>
	<row>
		<Value>45354000</Value>
		<Value>b7f019e4-d3e0-11e5-982d-14dae9b19a48</Value>
	</row>
	<row>
		<Value>45355000</Value>
		<Value>b7f019e4-d3e0-11e5-982d-14dae9b19a48</Value>
	</row>
	<row>
		<Value>45356000</Value>
		<Value>b7f019e4-d3e0-11e5-982d-14dae9b19a48</Value>
	</row>
	<row>
		<Value>45357000</Value>
		<Value>b7f019e4-d3e0-11e5-982d-14dae9b19a48</Value>
	</row>
	<row>
		<Value>45358000</Value>
		<Value>b7f019e4-d3e0-11e5-982d-14dae9b19a48</Value>
	</row>
	<row>
		<Value>45359000</Value>
		<Value>b7f019e4-d3e0-11e5-982d-14dae9b19a48</Value>
	</row>
	<row>
		<Value>45360000</Value>
		<Value>b7f019e4-d3e0-11e5-982d-14dae9b19a48</Value>
	</row>
	<row>
		<Value>45361000</Value>
		<Value>b7f019e4-d3e0-11e5-982d-14dae9b19a48</Value>
	</row>
	<row>
		<Value>45362000</Value>
		<Value>b7f019e4-d3e0-11e5-982d-14dae9b19a48</Value>
	</row>
	<row>
		<Value>45364000</Value>
		<Value>b7f019e4-d3e0-11e5-982d-14dae9b19a48</Value>
	</row>
	<row>
		<Value>45365000</Value>
		<Value>b7f019e4-d3e0-11e5-982d-14dae9b19a48</Value>
	</row>
	<row>
		<Value>45301000</Value>
		<Value>b7f019e4-d3e0-11e5-982d-14dae9b19a48</Value>
	</row>
	<row>
		<Value>45302000</Value>
		<Value>b7f019e4-d3e0-11e5-982d-14dae9b19a48</Value>
	</row>
	<row>
		<Value>45303000</Value>
		<Value>b7f019e4-d3e0-11e5-982d-14dae9b19a48</Value>
	</row>
	<row>
		<Value>45305000</Value>
		<Value>b7f019e4-d3e0-11e5-982d-14dae9b19a48</Value>
	</row>
	<row>
		<Value>45306000</Value>
		<Value>b7f019e4-d3e0-11e5-982d-14dae9b19a48</Value>
	</row>
	<row>
		<Value>45307000</Value>
		<Value>b7f019e4-d3e0-11e5-982d-14dae9b19a48</Value>
	</row>
	<row>
		<Value>45309000</Value>
		<Value>b7f019e4-d3e0-11e5-982d-14dae9b19a48</Value>
	</row>
	<row>
		<Value>45311000</Value>
		<Value>b7f019e4-d3e0-11e5-982d-14dae9b19a48</Value>
	</row>
	<row>
		<Value>45312000</Value>
		<Value>b7f019e4-d3e0-11e5-982d-14dae9b19a48</Value>
	</row>
	<row>
		<Value>45313000</Value>
		<Value>b7f019e4-d3e0-11e5-982d-14dae9b19a48</Value>
	</row>
	<row>
		<Value>45314000</Value>
		<Value>b7f019e4-d3e0-11e5-982d-14dae9b19a48</Value>
	</row>
	<row>
		<Value>45315000</Value>
		<Value>b7f019e4-d3e0-11e5-982d-14dae9b19a48</Value>
	</row>
	<row>
		<Value>45316000</Value>
		<Value>b7f019e4-d3e0-11e5-982d-14dae9b19a48</Value>
	</row>
	<row>
		<Value>45385000</Value>
		<Value>b7f019e4-d3e0-11e5-982d-14dae9b19a48</Value>
	</row>
	<row>
		<Value>45386000</Value>
		<Value>b7f019e4-d3e0-11e5-982d-14dae9b19a48</Value>
	</row>
	<row>
		<Value>45387000</Value>
		<Value>b7f019e4-d3e0-11e5-982d-14dae9b19a48</Value>
	</row>
	<row>
		<Value>45388000</Value>
		<Value>b7f019e4-d3e0-11e5-982d-14dae9b19a48</Value>
	</row>
	<row>
		<Value>45389000</Value>
		<Value>b7f019e4-d3e0-11e5-982d-14dae9b19a48</Value>
	</row>
	<row>
		<Value>45390000</Value>
		<Value>b7f019e4-d3e0-11e5-982d-14dae9b19a48</Value>
	</row>
	<row>
		<Value>45392000</Value>
		<Value>b7f019e4-d3e0-11e5-982d-14dae9b19a48</Value>
	</row>
	<row>
		<Value>45393000</Value>
		<Value>b7f019e4-d3e0-11e5-982d-14dae9b19a48</Value>
	</row>
	<row>
		<Value>45394000</Value>
		<Value>b7f019e4-d3e0-11e5-982d-14dae9b19a48</Value>
	</row>
	<row>
		<Value>45395000</Value>
		<Value>b7f019e4-d3e0-11e5-982d-14dae9b19a48</Value>
	</row>
	<row>
		<Value>45396000</Value>
		<Value>b7f019e4-d3e0-11e5-982d-14dae9b19a48</Value>
	</row>
	<row>
		<Value>45911000</Value>
		<Value>b7f019e4-d3e0-11e5-982d-14dae9b19a48</Value>
	</row>
	<row>
		<Value>45912000</Value>
		<Value>b7f019e4-d3e0-11e5-982d-14dae9b19a48</Value>
	</row>
	<row>
		<Value>45913000</Value>
		<Value>b7f019e4-d3e0-11e5-982d-14dae9b19a48</Value>
	</row>
	<row>
		<Value>45914000</Value>
		<Value>b7f019e4-d3e0-11e5-982d-14dae9b19a48</Value>
	</row>
	<row>
		<Value>45915000</Value>
		<Value>b7f019e4-d3e0-11e5-982d-14dae9b19a48</Value>
	</row>
	<row>
		<Value>45916000</Value>
		<Value>b7f019e4-d3e0-11e5-982d-14dae9b19a48</Value>
	</row>
	<row>
		<Value>45917000</Value>
		<Value>b7f019e4-d3e0-11e5-982d-14dae9b19a48</Value>
	</row>
	<row>
		<Value>45918000</Value>
		<Value>b7f019e4-d3e0-11e5-982d-14dae9b19a48</Value>
	</row>
	<row>
		<Value>45919000</Value>
		<Value>b7f019e4-d3e0-11e5-982d-14dae9b19a48</Value>
	</row>
	<row>
		<Value>45920000</Value>
		<Value>b7f019e4-d3e0-11e5-982d-14dae9b19a48</Value>
	</row>
	<row>
		<Value>45921000</Value>
		<Value>b7f019e4-d3e0-11e5-982d-14dae9b19a48</Value>
	</row>
	<row>
		<Value>45922000</Value>
		<Value>b7f019e4-d3e0-11e5-982d-14dae9b19a48</Value>
	</row>
	<row>
		<Value>45923000</Value>
		<Value>b7f019e4-d3e0-11e5-982d-14dae9b19a48</Value>
	</row>
	<row>
		<Value>45924000</Value>
		<Value>b7f019e4-d3e0-11e5-982d-14dae9b19a48</Value>
	</row>
	<row>
		<Value>45925000</Value>
		<Value>b7f019e4-d3e0-11e5-982d-14dae9b19a48</Value>
	</row>
	<row>
		<Value>45926000</Value>
		<Value>b7f019e4-d3e0-11e5-982d-14dae9b19a48</Value>
	</row>
	<row>
		<Value>45927000</Value>
		<Value>b7f019e4-d3e0-11e5-982d-14dae9b19a48</Value>
	</row>
	<row>
		<Value>45397000</Value>
		<Value>b7f019e4-d3e0-11e5-982d-14dae9b19a48</Value>
	</row>
	<row>
		<Value>45398000</Value>
		<Value>b7f019e4-d3e0-11e5-982d-14dae9b19a48</Value>
	</row>
	<row>
		<Value>45901000</Value>
		<Value>b7f019e4-d3e0-11e5-982d-14dae9b19a48</Value>
	</row>
	<row>
		<Value>45902000</Value>
		<Value>b7f019e4-d3e0-11e5-982d-14dae9b19a48</Value>
	</row>
	<row>
		<Value>45903000</Value>
		<Value>b7f019e4-d3e0-11e5-982d-14dae9b19a48</Value>
	</row>
	<row>
		<Value>45904000</Value>
		<Value>b7f019e4-d3e0-11e5-982d-14dae9b19a48</Value>
	</row>
	<row>
		<Value>45905000</Value>
		<Value>b7f019e4-d3e0-11e5-982d-14dae9b19a48</Value>
	</row>
	<row>
		<Value>45907000</Value>
		<Value>b7f019e4-d3e0-11e5-982d-14dae9b19a48</Value>
	</row>
	<row>
		<Value>45908000</Value>
		<Value>b7f019e4-d3e0-11e5-982d-14dae9b19a48</Value>
	</row>
	<row>
		<Value>45910000</Value>
		<Value>b7f019e4-d3e0-11e5-982d-14dae9b19a48</Value>
	</row>
	<row>
		<Value>45318000</Value>
		<Value>b7f019e4-d3e0-11e5-982d-14dae9b19a48</Value>
	</row>
	<row>
		<Value>45319000</Value>
		<Value>b7f019e4-d3e0-11e5-982d-14dae9b19a48</Value>
	</row>
	<row>
		<Value>45320000</Value>
		<Value>b7f019e4-d3e0-11e5-982d-14dae9b19a48</Value>
	</row>
	<row>
		<Value>45321000</Value>
		<Value>b7f019e4-d3e0-11e5-982d-14dae9b19a48</Value>
	</row>
	<row>
		<Value>45323000</Value>
		<Value>b7f019e4-d3e0-11e5-982d-14dae9b19a48</Value>
	</row>
	<row>
		<Value>45324000</Value>
		<Value>b7f019e4-d3e0-11e5-982d-14dae9b19a48</Value>
	</row>
	<row>
		<Value>45325000</Value>
		<Value>b7f019e4-d3e0-11e5-982d-14dae9b19a48</Value>
	</row>
	<row>
		<Value>45327000</Value>
		<Value>b7f019e4-d3e0-11e5-982d-14dae9b19a48</Value>
	</row>
	<row>
		<Value>45328000</Value>
		<Value>b7f019e4-d3e0-11e5-982d-14dae9b19a48</Value>
	</row>
	<row>
		<Value>45329000</Value>
		<Value>b7f019e4-d3e0-11e5-982d-14dae9b19a48</Value>
	</row>
	<row>
		<Value>45368000</Value>
		<Value>b7f019e4-d3e0-11e5-982d-14dae9b19a48</Value>
	</row>
	<row>
		<Value>45369000</Value>
		<Value>b7f019e4-d3e0-11e5-982d-14dae9b19a48</Value>
	</row>
	<row>
		<Value>45370000</Value>
		<Value>b7f019e4-d3e0-11e5-982d-14dae9b19a48</Value>
	</row>
	<row>
		<Value>45371000</Value>
		<Value>b7f019e4-d3e0-11e5-982d-14dae9b19a48</Value>
	</row>
	<row>
		<Value>45372000</Value>
		<Value>b7f019e4-d3e0-11e5-982d-14dae9b19a48</Value>
	</row>
	<row>
		<Value>45373000</Value>
		<Value>b7f019e4-d3e0-11e5-982d-14dae9b19a48</Value>
	</row>
</ValueTable>
